Wong Zi Xin - Challenge-2
…
# Import the "playlist_data.csv" dataset into R 

read_csv("playlist_data.csv") 

Rows: 26 Columns: 7
── Column specification ────────────────────────────────────────────────────────
Delimiter: ","
chr (4): DJ_Name, Music_Genre, Experience, Location
dbl (3): Rating, Age, Plays_Per_Week

ℹ Use `spec()` to retrieve the full column specification for this data.
ℹ Specify the column types or set `show_col_types = FALSE` to quiet this message.

# A tibble: 26 × 7
   DJ_Name Music_Genre Rating Experience     Age Location Plays_Per_Week
   <chr>   <chr>        <dbl> <chr>        <dbl> <chr>             <dbl>
 1 DJ A    Pop            4.2 Advanced        28 City X               80
 2 DJ B    Rock           3.8 Intermediate    24 City Y               60
 3 DJ C    Electronic     4.5 Advanced        30 City Z              100
 4 DJ D    Pop            4   Intermediate    22 City X               70
 5 DJ E    Electronic     4.8 Advanced        27 City Y               90
 6 DJ F    Rock           3.6 Intermediate    25 City Z               55
 7 DJ G    Pop            4.3 Advanced        29 City X               85
 8 DJ H    Electronic     4.1 Intermediate    23 City Y               75
 9 DJ I    Rock           3.9 Advanced        31 City Z               70
10 DJ J    Pop            4.4 Intermediate    26 City X               95
# ℹ 16 more rows
…
More information about read_csv command

Question 1.6: What does the skip argument in the read_csv() function do?

Solution: It is used to specify the number of lines to skip at the beginning of the CSV file before reading in the data. 

Question 1.7: Display the contents of the data-set

Solution:

# Type the name of the variable, to see what it contains
 playlist_data

# A tibble: 26 × 7
   DJ_Name Music_Genre Rating Experience     Age Location Plays_Per_Week
   <chr>   <chr>        <dbl> <chr>        <dbl> <chr>             <dbl>
 1 DJ A    Pop            4.2 Advanced        28 City X               80
 2 DJ B    Rock           3.8 Intermediate    24 City Y               60
 3 DJ C    Electronic     4.5 Advanced        30 City Z              100
 4 DJ D    Pop            4   Intermediate    22 City X               70
 5 DJ E    Electronic     4.8 Advanced        27 City Y               90
 6 DJ F    Rock           3.6 Intermediate    25 City Z               55
 7 DJ G    Pop            4.3 Advanced        29 City X               85
 8 DJ H    Electronic     4.1 Intermediate    23 City Y               75
 9 DJ I    Rock           3.9 Advanced        31 City Z               70
10 DJ J    Pop            4.4 Intermediate    26 City X               95
# ℹ 16 more rows
…
